{
    "name": "Baners",
    "alias": "baners",
    "description": "",
    "keywords": [],
    "active": 1,
    "order": 0,
    "providers": [
        "Modules\\Baners\\Providers\\BanersServiceProvider"
    ],
    "aliases":{},
    "files": [
        "start.php"
    ]
}